﻿uid,list,id,picture,sound,condition,Q2AOI1,AQ2OI2,Q2AOI3,Q4AOI4,AOI5,AOI6,AOI7,AOI8,Q2TLB,Q2TRB,Q2DLB,Q2DRB,beginword1,endword1,durword1,beginword2,endword2,durword2,beginword3,endword3,durword3,beginword4,endword4,durword4,cnd,where,sound,where_str
B1_2,B1,2,BR01.bmp,BRD01.wav,D,filler,TRB,filler,filler,TLB,DRB,filler,DLB,5,2,8,6,0,663.6,663.6,663.6,1543.92,880.32,1543.92,1797.6,253.68,1797.6,2844.24,1046.64,1,2,BRD01,2
B1_4,B1,4,BR06.bmp,BRR06.wav,R,TLB,DRB,filler,filler,DLB,TRB,filler,filler,1,6,5,2,0,1097.6,1097.6,1097.6,1582,485.8,1582,1783.6,201.6,1783.6,2794.4,1010.8,2,19,BRR06,19
B1_6,B1,6,BR12.bmp,BRD12.wav,D,filler,filler,DLB,DRB,filler,TLB,filler,TRB,6,8,3,4,0,865.2,865.2,865.2,1683.36,818.16,1683.36,1985.76,302.4,1985.76,2864.4,878.64,1,13,BRD12,13
B1_8,B1,8,BR03.bmp,BRR03.wav,R,DLB,filler,TRB,filler,filler,DRB,filler,TLB,8,3,1,6,0,918.4,918.4,918.4,1615.6,697.2,1615.6,1825.6,210,1825.6,2571.8,746.2,2,16,BRR03,16
B1_10,B1,10,BR05.bmp,BRD05.wav,D,filler,filler,DLB,filler,TLB,TRB,filler,DRB,5,6,3,8,0,974.4,974.4,974.4,1696.8,722.4,1696.8,1972.32,275.52,1972.32,3044.16,1071.84,1,6,BRD05,6
B1_12,B1,12,BR04.bmp,BRR04.wav,R,TLB,DLB,filler,filler,TRB,DRB,filler,filler,1,5,2,6,0,873.6,873.6,873.6,1519,644,1519,1758.4,240.8,1758.4,2503.2,746.2,2,17,BRR04,17
B1_14,B1,14,BR02.bmp,BRD02.wav,D,DRB,filler,TLB,filler,TRB,DLB,filler,filler,3,5,6,1,0,609.84,609.84,609.84,1150.8,540.96,1150.8,1375.92,225.12,1375.92,1940.4,564.48,1,3,BRD02,3
B1_16,B1,16,BR08.bmp,BRR08.wav,R,DRB,filler,filler,filler,DLB,TRB,filler,TLB,8,6,5,1,0,1034.6,1034.6,1034.6,1517.6,481.6,1517.6,1710.8,194.6,1710.8,2429,719.6,2,21,BRR08,21
B1_18,B1,18,BR07.bmp,BRD07.wav,D,filler,filler,filler,DRB,TRB,TLB,DLB,filler,6,5,7,4,0,834.96,834.96,834.96,1554,719.04,1554,1792.56,236.88,1792.56,2714.88,924,1,8,BRD07,8
B1_20,B1,20,BR10.bmp,BRR10.wav,R,DLB,TRB,filler,filler,filler,DRB,filler,TLB,8,2,1,6,0,991.2,991.2,991.2,1702.4,711.2,1702.4,1937.6,235.2,1937.6,2917.6,981.4,2,23,BRR10,23
B1_22,B1,22,BR11.bmp,BRD11.wav,D,TLB,filler,TRB,filler,filler,DRB,filler,DLB,1,3,8,6,0,609.84,609.84,609.84,1518.72,908.88,1518.72,1757.28,236.88,1757.28,2730,974.4,1,12,BRD11,12
B1_24,B1,24,BR09.bmp,BRR09.wav,R,DLB,TLB,TRB,filler,filler,DRB,filler,filler,2,3,1,6,0,842.8,842.8,842.8,1523.2,681.8,1523.2,1773.8,250.6,1773.8,2531.2,757.4,2,22,BRR09,22
